4 Prac4 – Statistical Computing
…
4  Prac4

4.1 Prac 4

4.1.1 TidyVerse (Question 1-6)

library(tidyverse)
library(nycflights13)
library(dplyr)

#Question 1
flights

# A tibble: 336,776 × 19
    year month   day dep_time sched_dep_time dep_delay arr_time sched_arr_time
   <int> <int> <int>    <int>          <int>     <dbl>    <int>          <int>
 1  2013     1     1      517            515         2      830            819
 2  2013     1     1      533            529         4      850            830
 3  2013     1     1      542            540         2      923            850
 4  2013     1     1      544            545        -1     1004           1022
 5  2013     1     1      554            600        -6      812            837
 6  2013     1     1      554            558        -4      740            728
 7  2013     1     1      555            600        -5      913            854
 8  2013     1     1      557            600        -3      709            723
 9  2013     1     1      557            600        -3      838            846
10  2013     1     1      558            600        -2      753            745
# ℹ 336,766 more rows
# ℹ 11 more variables: arr_delay <dbl>, carrier <chr>, flight <int>,
#   tailnum <chr>, origin <chr>, dest <chr>, air_time <dbl>, distance <dbl>,
#   hour <dbl>, minute <dbl>, time_hour <dttm>
…
# A tibble: 1 × 19
   year month   day dep_time sched_dep_time dep_delay arr_time sched_arr_time
  <int> <int> <int>    <int>          <int>     <dbl>    <int>          <int>
1  2013     1    30     1222           1115        67     1402           1215
# ℹ 11 more variables: arr_delay <dbl>, carrier <chr>, flight <int>,
#   tailnum <chr>, origin <chr>, dest <chr>, air_time <dbl>, distance <dbl>,
#   hour <dbl>, minute <dbl>, time_hour <dttm>

# The 0s arise from all the sd of YV, F9, AS, HA all have multiple identical data points
flights %>% 
  filter(month == 1, carrier == "YV") %>% 
  select(distance)

# A tibble: 46 × 1
   distance
      <dbl>
 1      229
 2      229
 3      229
 4      229
 5      229
 6      229
 7      229
 8      229
 9      229
10      229
# ℹ 36 more rows

flights %>% 
  filter(month == 1, carrier == "F9") %>% 
  select(distance)

# A tibble: 59 × 1
   distance
      <dbl>
 1     1620
 2     1620
 3     1620
 4     1620
 5     1620
 6     1620
 7     1620
 8     1620
 9     1620
10     1620
# ℹ 49 more rows

flights %>% 
  filter(month == 1, carrier == "AS") %>% 
  select(distance)

# A tibble: 62 × 1
   distance
      <dbl>
 1     2402
 2     2402
 3     2402
 4     2402
 5     2402
 6     2402
 7     2402
 8     2402
 9     2402
10     2402
# ℹ 52 more rows

flights %>% 
  filter(month == 1, carrier == "HA") %>% 
  select(distance)

# A tibble: 31 × 1
   distance
      <dbl>
 1     4983
 2     4983
 3     4983
 4     4983
 5     4983
 6     4983
 7     4983
 8     4983
 9     4983
10     4983
# ℹ 21 more rows
…
# This one liner create a true false vector and then 
# just sum up the trues and divide by total

#Question 6
Q1 = flights %>% 
  distinct(origin, dest, carrier) %>% 
  count(origin, dest, name = "numCarrier") %>% 
  filter(numCarrier > 1)
Q1

# A tibble: 128 × 3
   origin dest  numCarrier
   <chr>  <chr>      <int>
 1 EWR    ATL            4
 2 EWR    AUS            2
 3 EWR    BDL            2
 4 EWR    BNA            2
 5 EWR    BOS            3
 6 EWR    BWI            2
 7 EWR    CHS            2
 8 EWR    CLE            2
 9 EWR    CLT            3
10 EWR    CVG            2
# ℹ 118 more rows

avg = flights %>% 
  group_by(origin, dest, carrier) %>% 
  summarise(avg_arr_delay = mean(arr_delay, na.rm = TRUE))

Q2 = avg %>% 
  group_by(origin, dest) %>% 
  filter(n() > 1) %>%
  left_join(airlines, by = "carrier")
Q2

# A tibble: 343 × 5
# Groups:   origin, dest [128]
   origin dest  carrier avg_arr_delay name                    
   <chr>  <chr> <chr>           <dbl> <chr>                   
 1 EWR    ATL   9E              -6.25 Endeavor Air Inc.       
 2 EWR    ATL   DL              10.0  Delta Air Lines Inc.    
 3 EWR    ATL   EV              19.5  ExpressJet Airlines Inc.
 4 EWR    ATL   UA              10.5  United Air Lines Inc.   
 5 EWR    AUS   UA               4.28 United Air Lines Inc.   
 6 EWR    AUS   WN             -11.2  Southwest Airlines Co.  
 7 EWR    BDL   EV               6.78 ExpressJet Airlines Inc.
 8 EWR    BDL   UA              22.6  United Air Lines Inc.   
 9 EWR    BNA   EV              17.7  ExpressJet Airlines Inc.
10 EWR    BNA   WN              -2.13 Southwest Airlines Co.  
# ℹ 333 more rows

Q3 = Q2 %>%
  group_by(origin, dest) %>% 
  summarise(worst_arrival = max(avg_arr_delay),
            worst_airline = name[which.max(avg_arr_delay)],
            best_arrival = min(avg_arr_delay), 
            best_airline = name[which.min(avg_arr_delay)]) %>% 
  ungroup()
Q3

# A tibble: 128 × 6
   origin dest  worst_arrival worst_airline            best_arrival best_airline
   <chr>  <chr>         <dbl> <chr>                           <dbl> <chr>       
 1 EWR    ATL           19.5  ExpressJet Airlines Inc.       -6.25  Endeavor Ai…
 2 EWR    AUS            4.28 United Air Lines Inc.         -11.2   Southwest A…
 3 EWR    BDL           22.6  United Air Lines Inc.           6.78  ExpressJet …
 4 EWR    BNA           17.7  ExpressJet Airlines Inc.       -2.13  Southwest A…
 5 EWR    BOS            6.87 JetBlue Airways                -4.01  ExpressJet …
 6 EWR    BWI           20.1  ExpressJet Airlines Inc.        5.95  Southwest A…
 7 EWR    CHS           16.2  ExpressJet Airlines Inc.      -14     United Air …
 8 EWR    CLE            5.97 United Air Lines Inc.          -3.71  ExpressJet …
 9 EWR    CLT           20.5  ExpressJet Airlines Inc.        0.920 US Airways …
10 EWR    CVG           21.2  ExpressJet Airlines Inc.        1.40  Endeavor Ai…
# ℹ 118 more rows
…
